{
  "project_info": {
    "project_number": "1042495345981",
    "firebase_url": "https://assignment2-21ded.firebaseio.com",
    "project_id": "assignment2-21ded",
    "storage_bucket": "assignment2-21ded.appspot.com"
  },
  "client": [
    {
      "client_info": {
        "mobilesdk_app_id": "1:1042495345981:android:a8d162ece4d76a61",
        "android_client_info": {
          "package_name": "com.egci428.a20660"
        }
      },
      "oauth_client": [
        {
          "client_id": "1042495345981-h53o0ssrasd9snfsgr5boa9doda2ljop.apps.googleusercontent.com",
          "client_type": 1,
          "android_info": {
            "package_name": "com.egci428.a20660",
            "certificate_hash": "3B2D051752A01AF18C5476112E84CA5C906FB27A"
          }
        },
        {
          "client_id": "1042495345981-e5tja1tqoo1uhna3v8jdlmina3iurak4.apps.googleusercontent.com",
          "client_type": 3
        }
      ],
      "api_key": [
        {
          "current_key": "AIzaSyBex1b4Ii2-ci1FZYglHh0JeCZg-9L9ZbE"
        }
      ],
      "services": {
        "analytics_service": {
          "status": 1
        },
        "appinvite_service": {
          "status": 2,
          "other_platform_oauth_client": [
            {
              "client_id": "1042495345981-e5tja1tqoo1uhna3v8jdlmina3iurak4.apps.googleusercontent.com",
              "client_type": 3
            }
          ]
        },
        "ads_service": {
          "status": 2
        }
      }
    }
  ],
  "configuration_version": "1"
}